# 3ds Max Wavefront OBJ Exporter v0.97b - (c)2007 guruware
# File Created: 05.11.2020 17:32:51

newmtl color
	Ns 10.0000
	Ni 1.5000
	d 1.0000
	Tr 0.0000
	Tf 1.0000 1.0000 1.0000 
	illum 2
	Ka 0.9686 0.8863 0.7098
	Kd 0.9686 0.8863 0.7098
	Ks 0.0000 0.0000 0.0000
	Ke 0.0000 0.0000 0.0000

newmtl number
	Ns 10.0000
	Ni 1.5000
	d 1.0000
	Tr 0.0000
	Tf 1.0000 1.0000 1.0000 
	illum 2
	Ka 0.0863 0.0863 0.0863
	Kd 0.0863 0.0863 0.0863
	Ks 0.0000 0.0000 0.0000
	Ke 0.0000 0.0000 0.0000
