# 3ds Max Wavefront OBJ Exporter v0.97b - (c)2007 guruware
# File Created: 05.11.2020 17:35:13

mtllib 3.mtl

#
# object ChamferBox007
#

v  22.7400 18.0747 22.7400
v  22.7400 18.0747 -22.7400
v  -22.7400 18.0747 -22.7400
v  -22.7400 18.0747 22.7400
v  -22.7400 17.9729 -23.1200
v  -22.9300 17.9729 -23.0691
v  -23.0691 17.9729 -22.9300
v  -23.1200 17.9729 -22.7400
v  -23.1200 17.9729 22.7400
v  -23.0691 17.9729 22.9300
v  -22.9300 17.9729 23.0691
v  -22.7400 17.9729 23.1200
v  22.7400 17.9729 23.1200
v  22.9300 17.9729 23.0691
v  23.0691 17.9729 22.9300
v  23.1200 17.9729 22.7400
v  23.1200 17.9729 -22.7400
v  23.0691 17.9729 -22.9300
v  22.9300 17.9729 -23.0691
v  22.7400 17.9729 -23.1200
v  -23.0691 17.6947 -23.3100
v  -22.7400 17.6947 -23.3982
v  -23.3100 17.6947 -23.0691
v  -23.3982 17.6947 -22.7400
v  -23.3982 17.6947 22.7400
v  -23.3100 17.6947 23.0691
v  -23.0691 17.6947 23.3100
v  -22.7400 17.6947 23.3982
v  22.7400 17.6947 23.3982
v  23.0691 17.6947 23.3100
v  23.3100 17.6947 23.0691
v  23.3982 17.6947 22.7400
v  23.3982 17.6947 -22.7400
v  23.3100 17.6947 -23.0691
v  23.0691 17.6947 -23.3100
v  22.7400 17.6947 -23.3982
v  -23.1200 17.3147 -23.3982
v  -22.7400 17.3147 -23.5000
v  -23.3982 17.3147 -23.1200
v  -23.5000 17.3147 -22.7400
v  -23.5000 17.3147 22.7400
v  -23.3982 17.3147 23.1200
v  -23.1200 17.3147 23.3982
v  -22.7400 17.3147 23.5000
v  22.7400 17.3147 23.5000
v  23.1200 17.3147 23.3982
v  23.3982 17.3147 23.1200
v  23.5000 17.3147 22.7400
v  23.5000 17.3147 -22.7400
v  23.3982 17.3147 -23.1200
v  23.1200 17.3147 -23.3982
v  22.7400 17.3147 -23.5000
v  -23.1200 6.2477 -23.3982
v  -22.7400 6.2477 -23.5000
v  -23.3982 6.2477 -23.1200
v  -23.5000 6.2477 -22.7400
v  -23.5000 6.2477 22.7400
v  -23.3982 6.2477 23.1200
v  -23.1200 6.2477 23.3982
v  -22.7400 6.2477 23.5000
v  22.7400 6.2477 23.5000
v  23.1200 6.2477 23.3982
v  23.3982 6.2477 23.1200
v  23.5000 6.2477 22.7400
v  23.5000 6.2477 -22.7400
v  23.3982 6.2477 -23.1200
v  23.1200 6.2477 -23.3982
v  22.7400 6.2477 -23.5000
v  -23.0691 5.8677 -23.3100
v  -22.7400 5.8677 -23.3982
v  -23.3100 5.8677 -23.0691
v  -23.3982 5.8677 -22.7400
v  -23.3982 5.8677 22.7400
v  -23.3100 5.8677 23.0691
v  -23.0691 5.8677 23.3100
v  -22.7400 5.8677 23.3982
v  22.7400 5.8677 23.3982
v  23.0691 5.8677 23.3100
v  23.3100 5.8677 23.0691
v  23.3982 5.8677 22.7400
v  23.3982 5.8677 -22.7400
v  23.3100 5.8677 -23.0691
v  23.0691 5.8677 -23.3100
v  22.7400 5.8677 -23.3982
v  -22.9300 5.5895 -23.0691
v  -22.7400 5.5895 -23.1200
v  -23.0691 5.5895 -22.9300
v  -23.1200 5.5895 -22.7400
v  -23.1200 5.5895 22.7400
v  -23.0691 5.5895 22.9300
v  -22.9300 5.5895 23.0691
v  -22.7400 5.5895 23.1200
v  22.7400 5.5895 23.1200
v  22.9300 5.5895 23.0691
v  23.0691 5.5895 22.9300
v  23.1200 5.5895 22.7400
v  23.1200 5.5895 -22.7400
v  23.0691 5.5895 -22.9300
v  22.9300 5.5895 -23.0691
v  22.7400 5.5895 -23.1200
v  -22.7400 5.4877 -22.7400
v  -22.7400 5.4877 22.7400
v  22.7400 5.4877 22.7400
v  22.7400 5.4877 -22.7400
v  -7.8159 19.0747 9.1986
v  -8.0499 19.0747 8.3048
v  -8.0499 18.0747 8.3048
v  -7.8159 18.0747 9.1986
v  -7.4995 19.0747 10.0395
v  -7.4995 18.0747 10.0395
v  -7.1006 19.0747 10.8273
v  -7.1006 18.0747 10.8273
v  -6.6192 19.0747 11.5621
v  -6.6192 18.0747 11.5621
v  -6.0553 19.0747 12.2440
v  -6.0553 18.0747 12.2440
v  -5.4090 19.0747 12.8728
v  -5.4090 18.0747 12.8728
v  -4.6960 19.0747 13.4321
v  -4.6960 18.0747 13.4321
v  -3.9319 19.0747 13.9054
v  -3.9319 18.0747 13.9054
v  -3.1169 19.0747 14.2926
v  -3.1169 18.0747 14.2926
v  -2.2510 19.0747 14.5938
v  -2.2510 18.0747 14.5938
v  -1.3340 19.0747 14.8089
v  -1.3340 18.0747 14.8089
v  -0.3661 19.0747 14.9380
v  -0.3661 18.0747 14.9380
v  0.6528 19.0747 14.9810
v  0.6528 18.0747 14.9810
v  1.7290 19.0747 14.9300
v  1.7290 18.0747 14.9300
v  2.7536 19.0747 14.7769
v  2.7536 18.0747 14.7769
v  3.7264 19.0747 14.5218
v  3.7264 18.0747 14.5218
v  4.6475 19.0747 14.1646
v  4.6475 18.0747 14.1646
v  5.5169 19.0747 13.7053
v  5.5169 18.0747 13.7053
v  6.3345 19.0747 13.1440
v  6.3345 18.0747 13.1440
v  7.1004 19.0747 12.4807
v  7.1004 18.0747 12.4807
v  7.7876 19.0747 11.7449
v  7.7876 18.0747 11.7449
v  8.3691 19.0747 10.9664
v  8.3691 18.0747 10.9664
v  8.8449 19.0747 10.1452
v  8.8449 18.0747 10.1452
v  9.2149 19.0747 9.2812
v  9.2149 18.0747 9.2812
v  9.4792 19.0747 8.3744
v  9.4792 18.0747 8.3744
v  9.6378 19.0747 7.4249
v  9.6378 18.0747 7.4249
v  9.6906 19.0747 6.4327
v  9.6906 18.0747 6.4327
v  9.6626 19.0747 5.7487
v  9.6626 18.0747 5.7487
v  9.5785 19.0747 5.0940
v  9.5785 18.0747 5.0940
v  9.4382 19.0747 4.4685
v  9.4382 18.0747 4.4685
v  9.2419 19.0747 3.8723
v  9.2419 18.0747 3.8723
v  8.9895 19.0747 3.3054
v  8.9895 18.0747 3.3054
v  8.6810 19.0747 2.7677
v  8.6810 18.0747 2.7677
v  8.3165 19.0747 2.2593
v  8.3165 18.0747 2.2593
v  7.9051 19.0747 1.7906
v  7.9051 18.0747 1.7906
v  7.4562 19.0747 1.3723
v  7.4562 18.0747 1.3723
v  6.9698 19.0747 1.0042
v  6.9698 18.0747 1.0042
v  6.4460 19.0747 0.6865
v  6.4460 18.0747 0.6865
v  5.8846 19.0747 0.4190
v  5.8846 18.0747 0.4190
v  5.2857 19.0747 0.2018
v  5.2857 18.0747 0.2018
v  4.6493 19.0747 0.0349
v  4.6493 18.0747 0.0349
v  5.6748 19.0747 -0.5979
v  5.6748 18.0747 -0.5979
v  6.5425 19.0747 -1.2892
v  6.5425 18.0747 -1.2892
v  7.2525 19.0747 -2.0389
v  7.2525 18.0747 -2.0389
v  7.8047 19.0747 -2.8471
v  7.8047 18.0747 -2.8471
v  8.1991 19.0747 -3.7138
v  8.1991 18.0747 -3.7138
v  8.4358 19.0747 -4.6390
v  8.4358 18.0747 -4.6390
v  8.5146 19.0747 -5.6226
v  8.5146 18.0747 -5.6226
v  8.4759 19.0747 -6.3258
v  8.4759 18.0747 -6.3258
v  8.3598 19.0747 -7.0079
v  8.3598 18.0747 -7.0079
v  8.1662 19.0747 -7.6691
v  8.1662 18.0747 -7.6691
v  7.8951 19.0747 -8.3093
v  7.8951 18.0747 -8.3093
v  7.5467 19.0747 -8.9286
v  7.5467 18.0747 -8.9286
v  7.1208 19.0747 -9.5269
v  7.1208 18.0747 -9.5269
v  6.6174 19.0747 -10.1042
v  6.6174 18.0747 -10.1042
v  5.9288 19.0747 -10.7475
v  5.9288 18.0747 -10.7475
v  5.1786 19.0747 -11.2918
v  5.1786 18.0747 -11.2918
v  4.3667 19.0747 -11.7372
v  4.3667 18.0747 -11.7372
v  3.4931 19.0747 -12.0836
v  3.4931 18.0747 -12.0836
v  2.5579 19.0747 -12.3311
v  2.5579 18.0747 -12.3311
v  1.5610 19.0747 -12.4795
v  1.5610 18.0747 -12.4795
v  0.5025 19.0747 -12.5290
v  0.5025 18.0747 -12.5290
v  -0.1256 19.0747 -12.5118
v  -0.1256 18.0747 -12.5118
v  -0.7360 19.0747 -12.4603
v  -0.7360 18.0747 -12.4603
v  -1.3287 19.0747 -12.3744
v  -1.3287 18.0747 -12.3744
v  -1.9037 19.0747 -12.2542
v  -1.9037 18.0747 -12.2542
v  -2.4611 19.0747 -12.0996
v  -2.4611 18.0747 -12.0996
v  -3.0007 19.0747 -11.9107
v  -3.0007 18.0747 -11.9107
v  -3.5226 19.0747 -11.6874
v  -3.5226 18.0747 -11.6874
v  -4.0195 19.0747 -11.4341
v  -4.0195 18.0747 -11.4341
v  -4.4841 19.0747 -11.1551
v  -4.4841 18.0747 -11.1551
v  -4.9164 19.0747 -10.8504
v  -4.9164 18.0747 -10.8504
v  -5.3164 19.0747 -10.5201
v  -5.3164 18.0747 -10.5201
v  -5.6840 19.0747 -10.1641
v  -5.6840 18.0747 -10.1641
v  -6.0192 19.0747 -9.7824
v  -6.0192 18.0747 -9.7824
v  -6.3222 19.0747 -9.3751
v  -6.3222 18.0747 -9.3751
v  -6.5986 19.0747 -8.9347
v  -6.5986 18.0747 -8.9347
v  -6.8544 19.0747 -8.4539
v  -6.8544 18.0747 -8.4539
v  -7.0895 19.0747 -7.9327
v  -7.0895 18.0747 -7.9327
v  -7.3040 19.0747 -7.3712
v  -7.3040 18.0747 -7.3712
v  -7.4978 19.0747 -6.7692
v  -7.4978 18.0747 -6.7692
v  -7.6709 19.0747 -6.1269
v  -7.6709 18.0747 -6.1269
v  -7.8234 19.0747 -5.4441
v  -7.8234 18.0747 -5.4441
v  -3.0774 19.0747 -4.6330
v  -3.0774 18.0747 -4.6330
v  -3.0039 19.0747 -5.1212
v  -3.0039 18.0747 -5.1212
v  -2.9001 19.0747 -5.5748
v  -2.9001 18.0747 -5.5748
v  -2.7659 19.0747 -5.9938
v  -2.7659 18.0747 -5.9938
v  -2.6014 19.0747 -6.3781
v  -2.6014 18.0747 -6.3781
v  -2.4066 19.0747 -6.7279
v  -2.4066 18.0747 -6.7279
v  -2.1815 19.0747 -7.0431
v  -2.1815 18.0747 -7.0431
v  -1.9260 19.0747 -7.3236
v  -1.9260 18.0747 -7.3236
v  -1.6473 19.0747 -7.5681
v  -1.6473 18.0747 -7.5681
v  -1.3528 19.0747 -7.7749
v  -1.3528 18.0747 -7.7749
v  -1.0423 19.0747 -7.9441
v  -1.0423 18.0747 -7.9441
v  -0.7159 19.0747 -8.0758
v  -0.7159 18.0747 -8.0758
v  -0.3736 19.0747 -8.1698
v  -0.3736 18.0747 -8.1698
v  -0.0154 19.0747 -8.2262
v  -0.0154 18.0747 -8.2262
v  0.3588 19.0747 -8.2450
v  0.3588 18.0747 -8.2450
v  0.7351 19.0747 -8.2286
v  0.7351 18.0747 -8.2286
v  1.0895 19.0747 -8.1792
v  1.0895 18.0747 -8.1792
v  1.4219 19.0747 -8.0970
v  1.4219 18.0747 -8.0970
v  1.7323 19.0747 -7.9820
v  1.7323 18.0747 -7.9820
v  2.0208 19.0747 -7.8340
v  2.0208 18.0747 -7.8340
v  2.2872 19.0747 -7.6532
v  2.2872 18.0747 -7.6532
v  2.5316 19.0747 -7.4395
v  2.5316 18.0747 -7.4395
v  2.7484 19.0747 -7.1981
v  2.7484 18.0747 -7.1981
v  2.9318 19.0747 -6.9343
v  2.9318 18.0747 -6.9343
v  3.0819 19.0747 -6.6482
v  3.0819 18.0747 -6.6482
v  3.1986 19.0747 -6.3396
v  3.1986 18.0747 -6.3396
v  3.2819 19.0747 -6.0086
v  3.2819 18.0747 -6.0086
v  3.3320 19.0747 -5.6552
v  3.3320 18.0747 -5.6552
v  3.3486 19.0747 -5.2794
v  3.3486 18.0747 -5.2794
v  3.3259 19.0747 -4.8372
v  3.3259 18.0747 -4.8372
v  3.2578 19.0747 -4.4208
v  3.2578 18.0747 -4.4208
v  3.1443 19.0747 -4.0302
v  3.1443 18.0747 -4.0302
v  2.9853 19.0747 -3.6653
v  2.9853 18.0747 -3.6653
v  2.7810 19.0747 -3.3262
v  2.7810 18.0747 -3.3262
v  2.5312 19.0747 -3.0129
v  2.5312 18.0747 -3.0129
v  2.2360 19.0747 -2.7253
v  2.2360 18.0747 -2.7253
v  1.8976 19.0747 -2.4713
v  1.8976 18.0747 -2.4713
v  1.5184 19.0747 -2.2589
v  1.5184 18.0747 -2.2589
v  1.0984 19.0747 -2.0879
v  1.0984 18.0747 -2.0879
v  0.6375 19.0747 -1.9585
v  0.6375 18.0747 -1.9585
v  0.1357 19.0747 -1.8705
v  0.1357 18.0747 -1.8705
v  -0.4070 19.0747 -1.8240
v  -0.4070 18.0747 -1.8240
v  -0.9905 19.0747 -1.8190
v  -0.9905 18.0747 -1.8190
v  -1.5654 19.0747 2.3469
v  -1.5654 18.0747 2.3469
v  -1.1800 19.0747 2.2445
v  -1.1800 18.0747 2.2445
v  -0.8104 19.0747 2.1579
v  -0.8104 18.0747 2.1579
v  -0.4565 19.0747 2.0870
v  -0.4565 18.0747 2.0870
v  -0.1184 19.0747 2.0319
v  -0.1184 18.0747 2.0319
v  0.2040 19.0747 1.9925
v  0.2040 18.0747 1.9925
v  0.5108 19.0747 1.9689
v  0.5108 18.0747 1.9689
v  0.8017 19.0747 1.9610
v  0.8017 18.0747 1.9610
v  1.2223 19.0747 1.9843
v  1.2223 18.0747 1.9843
v  1.6242 19.0747 2.0543
v  1.6242 18.0747 2.0543
v  2.0073 19.0747 2.1708
v  2.0073 18.0747 2.1708
v  2.3717 19.0747 2.3341
v  2.3717 18.0747 2.3341
v  2.7174 19.0747 2.5439
v  2.7174 18.0747 2.5439
v  3.0443 19.0747 2.8004
v  3.0443 18.0747 2.8004
v  3.3526 19.0747 3.1035
v  3.3526 18.0747 3.1035
v  3.6301 19.0747 3.4465
v  3.6301 18.0747 3.4465
v  3.8649 19.0747 3.8226
v  3.8649 18.0747 3.8226
v  4.0571 19.0747 4.2318
v  4.0571 18.0747 4.2318
v  4.2065 19.0747 4.6741
v  4.2065 18.0747 4.6741
v  4.3133 19.0747 5.1496
v  4.3133 18.0747 5.1496
v  4.3773 19.0747 5.6581
v  4.3773 18.0747 5.6581
v  4.3986 19.0747 6.1997
v  4.3986 18.0747 6.1997
v  4.3763 19.0747 6.7723
v  4.3763 18.0747 6.7723
v  4.3094 19.0747 7.3102
v  4.3094 18.0747 7.3102
v  4.1980 19.0747 7.8135
v  4.1980 18.0747 7.8135
v  4.0419 19.0747 8.2823
v  4.0419 18.0747 8.2823
v  3.8412 19.0747 8.7163
v  3.8412 18.0747 8.7163
v  3.5959 19.0747 9.1158
v  3.5959 18.0747 9.1158
v  3.3060 19.0747 9.4806
v  3.3060 18.0747 9.4806
v  2.9835 19.0747 9.8033
v  2.9835 18.0747 9.8033
v  2.6404 19.0747 10.0764
v  2.6404 18.0747 10.0764
v  2.2767 19.0747 10.2998
v  2.2767 18.0747 10.2998
v  1.8925 19.0747 10.4736
v  1.8925 18.0747 10.4736
v  1.4876 19.0747 10.5977
v  1.4876 18.0747 10.5977
v  1.0621 19.0747 10.6722
v  1.0621 18.0747 10.6722
v  0.6160 19.0747 10.6970
v  0.6160 18.0747 10.6970
v  0.2001 19.0747 10.6763
v  0.2001 18.0747 10.6763
v  -0.1978 19.0747 10.6142
v  -0.1978 18.0747 10.6142
v  -0.5777 19.0747 10.5106
v  -0.5777 18.0747 10.5106
v  -0.9397 19.0747 10.3657
v  -0.9397 18.0747 10.3657
v  -1.2837 19.0747 10.1794
v  -1.2837 18.0747 10.1794
v  -1.6097 19.0747 9.9516
v  -1.6097 18.0747 9.9516
v  -1.9178 19.0747 9.6824
v  -1.9178 18.0747 9.6824
v  -2.2003 19.0747 9.3741
v  -2.2003 18.0747 9.3741
v  -2.4499 19.0747 9.0289
v  -2.4499 18.0747 9.0289
v  -2.6666 19.0747 8.6467
v  -2.6666 18.0747 8.6467
v  -2.8502 19.0747 8.2276
v  -2.8502 18.0747 8.2276
v  -3.0009 19.0747 7.7717
v  -3.0009 18.0747 7.7717
v  -3.1186 19.0747 7.2788
v  -3.1186 18.0747 7.2788
v  -3.2034 19.0747 6.7490
v  -3.2034 18.0747 6.7490
v  -8.2014 19.0747 7.3580
v  -8.2014 18.0747 7.3580
# 460 vertices

vn 0.1087 0.9881 0.1087
vn 0.1087 0.9881 -0.1087
vn -0.1087 0.9881 -0.1087
vn -0.1087 0.9881 0.1087
vn -0.0698 0.8549 -0.5140
vn -0.2654 0.8474 -0.4598
vn -0.4598 0.8474 -0.2654
vn -0.5140 0.8549 -0.0698
vn -0.5140 0.8549 0.0698
vn -0.4598 0.8474 0.2654
vn -0.2654 0.8474 0.4598
vn -0.0698 0.8549 0.5140
vn 0.0698 0.8549 0.5140
vn 0.2654 0.8474 0.4598
vn 0.4598 0.8474 0.2654
vn 0.5140 0.8549 0.0698
vn 0.5140 0.8549 -0.0698
vn 0.4598 0.8474 -0.2654
vn 0.2654 0.8474 -0.4598
vn 0.0698 0.8549 -0.5140
vn -0.4380 0.4823 -0.7586
vn -0.1129 0.4883 -0.8653
vn -0.7586 0.4823 -0.4380
vn -0.8653 0.4883 -0.1129
vn -0.8653 0.4883 0.1129
vn -0.7586 0.4823 0.4380
vn -0.4380 0.4823 0.7586
vn -0.1129 0.4883 0.8653
vn 0.1129 0.4883 0.8653
vn 0.4380 0.4823 0.7586
vn 0.7586 0.4823 0.4380
vn 0.8653 0.4883 0.1129
vn 0.8653 0.4883 -0.1129
vn 0.7586 0.4823 -0.4380
vn 0.4380 0.4823 -0.7586
vn 0.1129 0.4883 -0.8653
vn -0.4959 0.1278 -0.8589
vn -0.1281 0.1281 -0.9834
vn -0.8589 0.1278 -0.4959
vn -0.9834 0.1281 -0.1281
vn -0.9834 0.1281 0.1281
vn -0.8589 0.1278 0.4959
vn -0.4959 0.1278 0.8589
vn -0.1281 0.1281 0.9834
vn 0.1281 0.1281 0.9834
vn 0.4959 0.1278 0.8589
vn 0.8589 0.1278 0.4959
vn 0.9834 0.1281 0.1281
vn 0.9834 0.1281 -0.1281
vn 0.8589 0.1278 -0.4959
vn 0.4959 0.1278 -0.8589
vn 0.1281 0.1281 -0.9834
vn -0.4959 -0.1278 -0.8589
vn -0.1281 -0.1281 -0.9834
vn -0.8589 -0.1278 -0.4959
vn -0.9834 -0.1281 -0.1281
vn -0.9834 -0.1281 0.1281
vn -0.8589 -0.1278 0.4959
vn -0.4959 -0.1278 0.8589
vn -0.1281 -0.1281 0.9834
vn 0.1281 -0.1281 0.9834
vn 0.4959 -0.1278 0.8589
vn 0.8589 -0.1278 0.4959
vn 0.9834 -0.1281 0.1281
vn 0.9834 -0.1281 -0.1281
vn 0.8589 -0.1278 -0.4959
vn 0.4959 -0.1278 -0.8589
vn 0.1281 -0.1281 -0.9834
vn -0.4380 -0.4823 -0.7586
vn -0.1129 -0.4883 -0.8653
vn -0.7586 -0.4823 -0.4380
vn -0.8653 -0.4883 -0.1129
vn -0.8653 -0.4883 0.1129
vn -0.7586 -0.4823 0.4380
vn -0.4380 -0.4823 0.7586
vn -0.1129 -0.4883 0.8653
vn 0.1129 -0.4883 0.8653
vn 0.4380 -0.4823 0.7586
vn 0.7586 -0.4823 0.4380
vn 0.8653 -0.4883 0.1129
vn 0.8653 -0.4883 -0.1129
vn 0.7586 -0.4823 -0.4380
vn 0.4380 -0.4823 -0.7586
vn 0.1129 -0.4883 -0.8653
vn -0.2654 -0.8474 -0.4598
vn -0.0698 -0.8549 -0.5140
vn -0.4598 -0.8474 -0.2654
vn -0.5140 -0.8549 -0.0698
vn -0.5140 -0.8549 0.0698
vn -0.4598 -0.8474 0.2654
vn -0.2654 -0.8474 0.4598
vn -0.0698 -0.8549 0.5140
vn 0.0698 -0.8549 0.5140
vn 0.2654 -0.8474 0.4598
vn 0.4598 -0.8474 0.2654
vn 0.5140 -0.8549 0.0698
vn 0.5140 -0.8549 -0.0698
vn 0.4598 -0.8474 -0.2654
vn 0.2654 -0.8474 -0.4598
vn 0.0698 -0.8549 -0.5140
vn -0.1087 -0.9881 -0.1087
vn -0.1087 -0.9881 0.1087
vn 0.1087 -0.9881 0.1087
vn 0.1087 -0.9881 -0.1087
vn -0.9529 0.0000 0.3031
vn -0.9786 0.0000 0.2058
vn -0.9154 0.0000 0.4026
vn -0.8657 0.0000 0.5006
vn -0.8048 0.0000 0.5935
vn -0.7351 0.0000 0.6780
vn -0.6582 0.0000 0.7528
vn -0.5728 0.0000 0.8197
vn -0.4786 0.0000 0.8780
vn -0.3794 0.0000 0.9252
vn -0.2788 0.0000 0.9603
vn -0.1805 0.0000 0.9836
vn -0.0873 0.0000 0.9962
vn 0.0026 0.0000 1.0000
vn 0.0977 0.0000 0.9952
vn 0.2010 0.0000 0.9796
vn 0.3081 0.0000 0.9513
vn 0.4150 0.0000 0.9098
vn 0.5174 0.0000 0.8558
vn 0.6113 0.0000 0.7914
vn 0.6937 0.0000 0.7203
vn 0.7671 0.0000 0.6415
vn 0.8347 0.0000 0.5508
vn 0.8939 0.0000 0.4483
vn 0.9414 0.0000 0.3374
vn 0.9749 0.0000 0.2227
vn 0.9940 0.0000 0.1091
vn 1.0000 0.0000 0.0061
vn 0.9964 0.0000 -0.0843
vn 0.9849 0.0000 -0.1733
vn 0.9640 0.0000 -0.2661
vn 0.9329 0.0000 -0.3602
vn 0.8916 0.0000 -0.4528
vn 0.8411 0.0000 -0.5409
vn 0.7830 0.0000 -0.6220
vn 0.7176 0.0000 -0.6965
vn 0.6435 0.0000 -0.7655
vn 0.5618 0.0000 -0.8273
vn 0.4750 0.0000 -0.8800
vn 0.3860 0.0000 -0.9225
vn 0.2976 0.0000 -0.9547
vn 0.2537 0.0000 -0.9673
vn 0.5751 0.0000 0.8180
vn 0.5251 0.0000 0.8510
vn 0.6763 0.0000 0.7367
vn 0.7784 0.0000 0.6278
vn 0.8712 0.0000 0.4910
vn 0.9432 0.0000 0.3323
vn 0.9864 0.0000 0.1645
vn 0.9999 0.0000 0.0125
vn 0.9938 0.0000 -0.1116
vn 0.9744 0.0000 -0.2248
vn 0.9419 0.0000 -0.3360
vn 0.8976 0.0000 -0.4408
vn 0.8443 0.0000 -0.5359
vn 0.7851 0.0000 -0.6193
vn 0.7192 0.0000 -0.6949
vn 0.6362 0.0000 -0.7715
vn 0.5352 0.0000 -0.8447
vn 0.4256 0.0000 -0.9049
vn 0.3127 0.0000 -0.9498
vn 0.2018 0.0000 -0.9794
vn 0.0971 0.0000 -0.9953
vn 0.0097 0.0000 -1.0000
vn -0.0558 0.0000 -0.9984
vn -0.1138 0.0000 -0.9935
vn -0.1741 0.0000 -0.9847
vn -0.2361 0.0000 -0.9717
vn -0.2990 0.0000 -0.9542
vn -0.3621 0.0000 -0.9321
vn -0.4240 0.0000 -0.9057
vn -0.4848 0.0000 -0.8746
vn -0.5458 0.0000 -0.8379
vn -0.6069 0.0000 -0.7948
vn -0.6668 0.0000 -0.7453
vn -0.7241 0.0000 -0.6897
vn -0.7775 0.0000 -0.6289
vn -0.8253 0.0000 -0.5647
vn -0.8654 0.0000 -0.5010
vn -0.8977 0.0000 -0.4407
vn -0.9233 0.0000 -0.3842
vn -0.9434 0.0000 -0.3317
vn -0.9590 0.0000 -0.2834
vn -0.9710 0.0000 -0.2391
vn -0.9760 0.0000 -0.2179
vn -0.1685 0.0000 0.9857
vn 0.9825 0.0000 0.1861
vn 0.9889 0.0000 0.1488
vn 0.9645 0.0000 0.2643
vn 0.9369 0.0000 0.3496
vn 0.8977 0.0000 0.4406
vn 0.8450 0.0000 0.5348
vn 0.7779 0.0000 0.6284
vn 0.7005 0.0000 0.7136
vn 0.6180 0.0000 0.7862
vn 0.5275 0.0000 0.8496
vn 0.4270 0.0000 0.9042
vn 0.3200 0.0000 0.9474
vn 0.2105 0.0000 0.9776
vn 0.1030 0.0000 0.9947
vn 0.0033 0.0000 1.0000
vn -0.0908 0.0000 0.9959
vn -0.1892 0.0000 0.9819
vn -0.2943 0.0000 0.9557
vn -0.4027 0.0000 0.9153
vn -0.5100 0.0000 0.8602
vn -0.6111 0.0000 0.7916
vn -0.7024 0.0000 0.7118
vn -0.7840 0.0000 0.6207
vn -0.8550 0.0000 0.5187
vn -0.9122 0.0000 0.4099
vn -0.9541 0.0000 0.2995
vn -0.9813 0.0000 0.1925
vn -0.9957 0.0000 0.0923
vn -1.0000 0.0000 -0.0035
vn -0.9943 0.0000 -0.1065
vn -0.9753 0.0000 -0.2207
vn -0.9404 0.0000 -0.3399
vn -0.8886 0.0000 -0.4588
vn -0.8210 0.0000 -0.5710
vn -0.7413 0.0000 -0.6711
vn -0.6504 0.0000 -0.7596
vn -0.5457 0.0000 -0.8380
vn -0.4337 0.0000 -0.9011
vn -0.3242 0.0000 -0.9460
vn -0.2218 0.0000 -0.9751
vn -0.1291 0.0000 -0.9916
vn -0.0470 0.0000 -0.9989
vn -0.0086 0.0000 -1.0000
vn -0.9906 0.0000 -0.1367
vn 0.2425 0.0000 0.9701
vn 0.2568 0.0000 0.9665
vn 0.2123 0.0000 0.9772
vn 0.1787 0.0000 0.9839
vn 0.1411 0.0000 0.9900
vn 0.0990 0.0000 0.9951
vn 0.0519 0.0000 0.9987
vn -0.0142 0.0000 0.9999
vn -0.1136 0.0000 0.9935
vn -0.2317 0.0000 0.9728
vn -0.3506 0.0000 0.9365
vn -0.4648 0.0000 0.8854
vn -0.5691 0.0000 0.8223
vn -0.6602 0.0000 0.7511
vn -0.7405 0.0000 0.6721
vn -0.8143 0.0000 0.5804
vn -0.8783 0.0000 0.4782
vn -0.9278 0.0000 0.3731
vn -0.9629 0.0000 0.2699
vn -0.9851 0.0000 0.1722
vn -0.9966 0.0000 0.0822
vn -1.0000 0.0000 0.0002
vn -0.9967 0.0000 -0.0812
vn -0.9854 0.0000 -0.1700
vn -0.9638 0.0000 -0.2665
vn -0.9297 0.0000 -0.3684
vn -0.8814 0.0000 -0.4723
vn -0.8190 0.0000 -0.5737
vn -0.7464 0.0000 -0.6656
vn -0.6661 0.0000 -0.7458
vn -0.5741 0.0000 -0.8188
vn -0.4687 0.0000 -0.8834
vn -0.3533 0.0000 -0.9355
vn -0.2332 0.0000 -0.9724
vn -0.1142 0.0000 -0.9935
vn -0.0029 0.0000 -1.0000
vn 0.1021 0.0000 -0.9948
vn 0.2089 0.0000 -0.9779
vn 0.3178 0.0000 -0.9481
vn 0.4247 0.0000 -0.9053
vn 0.5253 0.0000 -0.8509
vn 0.6162 0.0000 -0.7876
vn 0.6987 0.0000 -0.7154
vn 0.7751 0.0000 -0.6318
vn 0.8414 0.0000 -0.5403
vn 0.8941 0.0000 -0.4479
vn 0.9337 0.0000 -0.3580
vn 0.9619 0.0000 -0.2733
vn 0.9808 0.0000 -0.1953
vn 0.9874 0.0000 -0.1579
vn -0.1210 0.0000 -0.9927
vn -0.9874 0.0000 0.1580
vn 0.0000 -1.0000 -0.0000
vn 0.0000 1.0000 -0.0000
# 288 vertex normals

vt 0.9838 0.0162 0.0000
vt 0.9838 0.9838 0.0000
vt 0.0162 0.9838 0.0000
vt 0.0162 0.0162 0.0000
vt 0.0162 0.9919 0.0000
vt 0.0121 0.9908 0.0000
vt 0.0092 0.9879 0.0000
vt 0.0081 0.9838 0.0000
vt 0.0081 0.0162 0.0000
vt 0.0092 0.0121 0.0000
vt 0.0121 0.0092 0.0000
vt 0.0162 0.0081 0.0000
vt 0.9838 0.0081 0.0000
vt 0.9879 0.0092 0.0000
vt 0.9908 0.0121 0.0000
vt 0.9919 0.0162 0.0000
vt 0.9919 0.9838 0.0000
vt 0.9908 0.9879 0.0000
vt 0.9879 0.9908 0.0000
vt 0.9838 0.9919 0.0000
vt 0.0092 0.9960 0.0000
vt 0.0162 0.9978 0.0000
vt 0.0040 0.9908 0.0000
vt 0.0022 0.9838 0.0000
vt 0.0022 0.0162 0.0000
vt 0.0040 0.0092 0.0000
vt 0.0092 0.0040 0.0000
vt 0.0162 0.0022 0.0000
vt 0.9838 0.0022 0.0000
vt 0.9908 0.0040 0.0000
vt 0.9960 0.0092 0.0000
vt 0.9978 0.0162 0.0000
vt 0.9978 0.9838 0.0000
vt 0.9960 0.9908 0.0000
vt 0.9908 0.9960 0.0000
vt 0.9838 0.9978 0.0000
vt 0.0081 0.9978 0.0000
vt 0.0162 1.0000 0.0000
vt 0.0022 0.9919 0.0000
vt 0.0000 0.9838 0.0000
vt 0.0000 0.0162 0.0000
vt 0.0022 0.0081 0.0000
vt 0.0081 0.0022 0.0000
vt 0.0162 0.0000 0.0000
vt 0.9838 0.0000 0.0000
vt 0.9919 0.0022 0.0000
vt 0.9978 0.0081 0.0000
vt 1.0000 0.0162 0.0000
vt 1.0000 0.9838 0.0000
vt 0.9978 0.9919 0.0000
vt 0.9919 0.9978 0.0000
vt 0.9838 1.0000 0.0000
vt 0.0021 0.0000 0.0000
vt 0.0021 1.0000 0.0000
vt 0.0000 1.0000 0.0000
vt 0.0000 0.0000 0.0000
vt 0.0041 0.0000 0.0000
vt 0.0041 1.0000 0.0000
vt 0.0062 0.0000 0.0000
vt 0.0062 1.0000 0.0000
vt 0.2460 0.0000 0.0000
vt 0.2460 1.0000 0.0000
vt 0.2481 0.0000 0.0000
vt 0.2481 1.0000 0.0000
vt 0.2501 0.0000 0.0000
vt 0.2501 1.0000 0.0000
vt 0.2522 0.0000 0.0000
vt 0.2522 1.0000 0.0000
vt 0.4920 0.0000 0.0000
vt 0.4920 1.0000 0.0000
vt 0.4941 0.0000 0.0000
vt 0.4941 1.0000 0.0000
vt 0.4961 0.0000 0.0000
vt 0.4961 1.0000 0.0000
vt 0.4982 0.0000 0.0000
vt 0.4982 1.0000 0.0000
vt 0.7380 0.0000 0.0000
vt 0.7380 1.0000 0.0000
vt 0.7401 0.0000 0.0000
vt 0.7401 1.0000 0.0000
vt 0.7421 0.0000 0.0000
vt 0.7421 1.0000 0.0000
vt 0.7442 0.0000 0.0000
vt 0.7442 1.0000 0.0000
vt 1.0000 0.0000 0.0000
vt 1.0000 1.0000 0.0000
vt -8.5606 5.2784 1.0000
vt -8.7945 6.1722 1.0000
vt -8.7945 6.1722 0.0000
vt -8.5606 5.2784 0.0000
vt -8.2441 4.4375 1.0000
vt -8.2441 4.4375 0.0000
vt -7.8452 3.6497 1.0000
vt -7.8452 3.6497 0.0000
vt -7.3638 2.9149 1.0000
vt -7.3638 2.9149 0.0000
vt -6.8000 2.2330 1.0000
vt -6.8000 2.2330 0.0000
vt -6.1537 1.6042 1.0000
vt -6.1537 1.6042 0.0000
vt -5.4406 1.0449 1.0000
vt -5.4406 1.0449 0.0000
vt -4.6766 0.5716 1.0000
vt -4.6766 0.5716 0.0000
vt -3.8616 0.1844 1.0000
vt -3.8616 0.1844 0.0000
vt -2.9956 -0.1168 1.0000
vt -2.9956 -0.1168 0.0000
vt -2.0787 -0.3319 1.0000
vt -2.0787 -0.3319 0.0000
vt -1.1108 -0.4610 1.0000
vt -1.1108 -0.4610 0.0000
vt -0.0919 -0.5040 1.0000
vt -0.0919 -0.5040 0.0000
vt 0.9844 -0.4530 1.0000
vt 0.9844 -0.4530 0.0000
vt 2.0089 -0.2999 1.0000
vt 2.0089 -0.2999 0.0000
vt 2.9817 -0.0448 1.0000
vt 2.9817 -0.0448 0.0000
vt 3.9028 0.3124 1.0000
vt 3.9028 0.3124 0.0000
vt 4.7722 0.7717 1.0000
vt 4.7722 0.7717 0.0000
vt 5.5899 1.3330 1.0000
vt 5.5899 1.3330 0.0000
vt 6.3558 1.9963 1.0000
vt 6.3558 1.9963 0.0000
vt 7.0430 2.7321 1.0000
vt 7.0430 2.7321 0.0000
vt 7.6245 3.5106 1.0000
vt 7.6245 3.5106 0.0000
vt 8.1002 4.3318 1.0000
vt 8.1002 4.3318 0.0000
vt 8.4702 5.1958 1.0000
vt 8.4702 5.1958 0.0000
vt 8.7346 6.1026 1.0000
vt 8.7346 6.1026 0.0000
vt 8.8931 7.0521 1.0000
vt 8.8931 7.0521 0.0000
vt 8.9460 8.0443 1.0000
vt 8.9460 8.0443 0.0000
vt 8.9180 8.7283 1.0000
vt 8.9180 8.7283 0.0000
vt 8.8338 9.3830 1.0000
vt 8.8338 9.3830 0.0000
vt 8.6936 10.0085 1.0000
vt 8.6936 10.0085 0.0000
vt 8.4973 10.6047 1.0000
vt 8.4973 10.6047 0.0000
vt 8.2449 11.1716 1.0000
vt 8.2449 11.1716 0.0000
vt 7.9364 11.7093 1.0000
vt 7.9364 11.7093 0.0000
vt 7.5718 12.2177 1.0000
vt 7.5718 12.2177 0.0000
vt 7.1604 12.6864 1.0000
vt 7.1604 12.6864 0.0000
vt 6.7116 13.1047 1.0000
vt 6.7116 13.1047 0.0000
vt 6.2252 13.4728 1.0000
vt 6.2252 13.4728 0.0000
vt 5.7013 13.7905 1.0000
vt 5.7013 13.7905 0.0000
vt 5.1399 14.0580 1.0000
vt 5.1399 14.0580 0.0000
vt 4.5411 14.2752 1.0000
vt 4.5411 14.2752 0.0000
vt 3.9047 14.4421 1.0000
vt 3.9047 14.4421 0.0000
vt 4.9302 15.0749 1.0000
vt 4.9302 15.0749 0.0000
vt 5.7979 15.7662 1.0000
vt 5.7979 15.7662 0.0000
vt 6.5079 16.5159 1.0000
vt 6.5079 16.5159 0.0000
vt 7.0600 17.3241 1.0000
vt 7.0600 17.3241 0.0000
vt 7.4545 18.1908 1.0000
vt 7.4545 18.1908 0.0000
vt 7.6911 19.1160 1.0000
vt 7.6911 19.1160 0.0000
vt 7.7700 20.0996 1.0000
vt 7.7700 20.0996 0.0000
vt 7.7313 20.8028 1.0000
vt 7.7313 20.8028 0.0000
vt 7.6151 21.4849 1.0000
vt 7.6151 21.4849 0.0000
vt 7.4215 22.1461 1.0000
vt 7.4215 22.1461 0.0000
vt 7.1505 22.7863 1.0000
vt 7.1505 22.7863 0.0000
vt 6.8020 23.4056 1.0000
vt 6.8020 23.4056 0.0000
vt 6.3761 24.0039 1.0000
vt 6.3761 24.0039 0.0000
vt 5.8728 24.5812 1.0000
vt 5.8728 24.5812 0.0000
vt 5.1842 25.2245 1.0000
vt 5.1842 25.2245 0.0000
vt 4.4340 25.7688 1.0000
vt 4.4340 25.7688 0.0000
vt 3.6221 26.2142 1.0000
vt 3.6221 26.2142 0.0000
vt 2.7485 26.5606 1.0000
vt 2.7485 26.5606 0.0000
vt 1.8133 26.8081 1.0000
vt 1.8133 26.8081 0.0000
vt 0.8164 26.9565 1.0000
vt 0.8164 26.9565 0.0000
vt -0.2422 27.0060 1.0000
vt -0.2422 27.0060 0.0000
vt -0.8702 26.9888 1.0000
vt -0.8702 26.9888 0.0000
vt -1.4806 26.9373 1.0000
vt -1.4806 26.9373 0.0000
vt -2.0734 26.8514 1.0000
vt -2.0734 26.8514 0.0000
vt -2.6484 26.7312 1.0000
vt -2.6484 26.7312 0.0000
vt -3.2057 26.5766 1.0000
vt -3.2057 26.5766 0.0000
vt -3.7453 26.3877 1.0000
vt -3.7453 26.3877 0.0000
vt -4.2673 26.1644 1.0000
vt -4.2673 26.1644 0.0000
vt -4.7642 25.9111 1.0000
vt -4.7642 25.9111 0.0000
vt -5.2288 25.6321 1.0000
vt -5.2288 25.6321 0.0000
vt -5.6611 25.3274 1.0000
vt -5.6611 25.3274 0.0000
vt -6.0610 24.9971 1.0000
vt -6.0610 24.9971 0.0000
vt -6.4286 24.6411 1.0000
vt -6.4286 24.6411 0.0000
vt -6.7639 24.2594 1.0000
vt -6.7639 24.2594 0.0000
vt -7.0668 23.8521 1.0000
vt -7.0668 23.8521 0.0000
vt -7.3433 23.4117 1.0000
vt -7.3433 23.4117 0.0000
vt -7.5991 22.9309 1.0000
vt -7.5991 22.9309 0.0000
vt -7.8342 22.4097 1.0000
vt -7.8342 22.4097 0.0000
vt -8.0486 21.8482 1.0000
vt -8.0486 21.8482 0.0000
vt -8.2424 21.2462 1.0000
vt -8.2424 21.2462 0.0000
vt -8.4155 20.6039 1.0000
vt -8.4155 20.6039 0.0000
vt -8.5680 19.9211 1.0000
vt -8.5680 19.9211 0.0000
vt -3.8220 19.1100 1.0000
vt -3.8220 19.1100 0.0000
vt -3.7485 19.5982 1.0000
vt -3.7485 19.5982 0.0000
vt -3.6447 20.0518 1.0000
vt -3.6447 20.0518 0.0000
vt -3.5106 20.4708 1.0000
vt -3.5106 20.4708 0.0000
vt -3.3461 20.8551 1.0000
vt -3.3461 20.8551 0.0000
vt -3.1513 21.2049 1.0000
vt -3.1513 21.2049 0.0000
vt -2.9261 21.5201 1.0000
vt -2.9261 21.5201 0.0000
vt -2.6706 21.8006 1.0000
vt -2.6706 21.8006 0.0000
vt -2.3920 22.0451 1.0000
vt -2.3920 22.0451 0.0000
vt -2.0974 22.2519 1.0000
vt -2.0974 22.2519 0.0000
vt -1.7870 22.4211 1.0000
vt -1.7870 22.4211 0.0000
vt -1.4606 22.5528 1.0000
vt -1.4606 22.5528 0.0000
vt -1.1183 22.6468 1.0000
vt -1.1183 22.6468 0.0000
vt -0.7600 22.7032 1.0000
vt -0.7600 22.7032 0.0000
vt -0.3859 22.7220 1.0000
vt -0.3859 22.7220 0.0000
vt -0.0095 22.7056 1.0000
vt -0.0095 22.7056 0.0000
vt 0.3449 22.6562 1.0000
vt 0.3449 22.6562 0.0000
vt 0.6773 22.5740 1.0000
vt 0.6773 22.5740 0.0000
vt 0.9877 22.4590 1.0000
vt 0.9877 22.4590 0.0000
vt 1.2761 22.3110 1.0000
vt 1.2761 22.3110 0.0000
vt 1.5425 22.1302 1.0000
vt 1.5425 22.1302 0.0000
vt 1.7870 21.9165 1.0000
vt 1.7870 21.9165 0.0000
vt 2.0037 21.6751 1.0000
vt 2.0037 21.6751 0.0000
vt 2.1871 21.4113 1.0000
vt 2.1871 21.4113 0.0000
vt 2.3372 21.1252 1.0000
vt 2.3372 21.1252 0.0000
vt 2.4539 20.8166 1.0000
vt 2.4539 20.8166 0.0000
vt 2.5373 20.4856 1.0000
vt 2.5373 20.4856 0.0000
vt 2.5873 20.1322 1.0000
vt 2.5873 20.1322 0.0000
vt 2.6040 19.7564 1.0000
vt 2.6040 19.7564 0.0000
vt 2.5813 19.3142 1.0000
vt 2.5813 19.3142 0.0000
vt 2.5132 18.8978 1.0000
vt 2.5132 18.8978 0.0000
vt 2.3996 18.5072 1.0000
vt 2.3996 18.5072 0.0000
vt 2.2407 18.1423 1.0000
vt 2.2407 18.1423 0.0000
vt 2.0363 17.8032 1.0000
vt 2.0363 17.8032 0.0000
vt 1.7865 17.4899 1.0000
vt 1.7865 17.4899 0.0000
vt 1.4913 17.2023 1.0000
vt 1.4913 17.2023 0.0000
vt 1.1530 16.9483 1.0000
vt 1.1530 16.9483 0.0000
vt 0.7738 16.7359 1.0000
vt 0.7738 16.7359 0.0000
vt 0.3537 16.5649 1.0000
vt 0.3537 16.5649 0.0000
vt -0.1072 16.4355 1.0000
vt -0.1072 16.4355 0.0000
vt -0.6090 16.3475 1.0000
vt -0.6090 16.3475 0.0000
vt -1.1516 16.3010 1.0000
vt -1.1516 16.3010 0.0000
vt -1.7351 16.2960 1.0000
vt -1.7351 16.2960 0.0000
vt -2.3100 12.1301 1.0000
vt -2.3100 12.1301 0.0000
vt -1.9247 12.2325 1.0000
vt -1.9247 12.2325 0.0000
vt -1.5551 12.3191 1.0000
vt -1.5551 12.3191 0.0000
vt -1.2012 12.3900 1.0000
vt -1.2012 12.3900 0.0000
vt -0.8630 12.4451 1.0000
vt -0.8630 12.4451 0.0000
vt -0.5406 12.4845 1.0000
vt -0.5406 12.4845 0.0000
vt -0.2339 12.5081 1.0000
vt -0.2339 12.5081 0.0000
vt 0.0571 12.5160 1.0000
vt 0.0571 12.5160 0.0000
vt 0.4777 12.4927 1.0000
vt 0.4777 12.4927 0.0000
vt 0.8795 12.4227 1.0000
vt 0.8795 12.4227 0.0000
vt 1.2627 12.3061 1.0000
vt 1.2627 12.3061 0.0000
vt 1.6271 12.1429 1.0000
vt 1.6271 12.1429 0.0000
vt 1.9727 11.9331 1.0000
vt 1.9727 11.9331 0.0000
vt 2.2997 11.6766 1.0000
vt 2.2997 11.6766 0.0000
vt 2.6079 11.3735 1.0000
vt 2.6079 11.3735 0.0000
vt 2.8855 11.0305 1.0000
vt 2.8855 11.0305 0.0000
vt 3.1203 10.6544 1.0000
vt 3.1203 10.6544 0.0000
vt 3.3124 10.2452 1.0000
vt 3.3124 10.2452 0.0000
vt 3.4619 9.8029 1.0000
vt 3.4619 9.8029 0.0000
vt 3.5686 9.3274 1.0000
vt 3.5686 9.3274 0.0000
vt 3.6327 8.8189 1.0000
vt 3.6327 8.8189 0.0000
vt 3.6540 8.2773 1.0000
vt 3.6540 8.2773 0.0000
vt 3.6317 7.7047 1.0000
vt 3.6317 7.7047 0.0000
vt 3.5648 7.1668 1.0000
vt 3.5648 7.1668 0.0000
vt 3.4533 6.6634 1.0000
vt 3.4533 6.6634 0.0000
vt 3.2972 6.1947 1.0000
vt 3.2972 6.1947 0.0000
vt 3.0965 5.7607 1.0000
vt 3.0965 5.7607 0.0000
vt 2.8512 5.3612 1.0000
vt 2.8512 5.3612 0.0000
vt 2.5613 4.9964 1.0000
vt 2.5613 4.9964 0.0000
vt 2.2389 4.6737 1.0000
vt 2.2389 4.6737 0.0000
vt 1.8958 4.4006 1.0000
vt 1.8958 4.4006 0.0000
vt 1.5321 4.1772 1.0000
vt 1.5321 4.1772 0.0000
vt 1.1478 4.0034 1.0000
vt 1.1478 4.0034 0.0000
vt 0.7429 3.8793 1.0000
vt 0.7429 3.8793 0.0000
vt 0.3175 3.8048 1.0000
vt 0.3175 3.8048 0.0000
vt -0.1286 3.7800 1.0000
vt -0.1286 3.7800 0.0000
vt -0.5445 3.8007 1.0000
vt -0.5445 3.8007 0.0000
vt -0.9424 3.8628 1.0000
vt -0.9424 3.8628 0.0000
vt -1.3224 3.9663 1.0000
vt -1.3224 3.9663 0.0000
vt -1.6843 4.1113 1.0000
vt -1.6843 4.1113 0.0000
vt -2.0283 4.2976 1.0000
vt -2.0283 4.2976 0.0000
vt -2.3544 4.5254 1.0000
vt -2.3544 4.5254 0.0000
vt -2.6624 4.7946 1.0000
vt -2.6624 4.7946 0.0000
vt -2.9450 5.1029 1.0000
vt -2.9450 5.1029 0.0000
vt -3.1946 5.4481 1.0000
vt -3.1946 5.4481 0.0000
vt -3.4112 5.8303 1.0000
vt -3.4112 5.8303 0.0000
vt -3.5949 6.2493 1.0000
vt -3.5949 6.2493 0.0000
vt -3.7456 6.7053 1.0000
vt -3.7456 6.7053 0.0000
vt -3.8633 7.1982 1.0000
vt -3.8633 7.1982 0.0000
vt -3.9480 7.7280 1.0000
vt -3.9480 7.7280 0.0000
vt -8.9460 7.1190 1.0000
vt -8.9460 7.1190 0.0000
# 442 texture coords

g ChamferBox007
usemtl color
s 1
f 1/1/1 2/2/2 3/3/3 4/4/4 
f 3/3/3 5/5/5 6/6/6 
f 3/3/3 6/6/6 7/7/7 
f 3/3/3 7/7/7 8/8/8 
f 9/9/9 4/4/4 3/3/3 8/8/8 
f 4/4/4 9/9/9 10/10/10 
f 4/4/4 10/10/10 11/11/11 
f 4/4/4 11/11/11 12/12/12 
f 13/13/13 1/1/1 4/4/4 12/12/12 
f 1/1/1 13/13/13 14/14/14 
f 1/1/1 14/14/14 15/15/15 
f 1/1/1 15/15/15 16/16/16 
f 17/17/17 2/2/2 1/1/1 16/16/16 
f 2/2/2 17/17/17 18/18/18 
f 2/2/2 18/18/18 19/19/19 
f 2/2/2 19/19/19 20/20/20 
f 5/5/5 3/3/3 2/2/2 20/20/20 
f 21/21/21 6/6/6 5/5/5 22/22/22 
f 23/23/23 7/7/7 6/6/6 21/21/21 
f 24/24/24 8/8/8 7/7/7 23/23/23 
f 25/25/25 9/9/9 8/8/8 24/24/24 
f 26/26/26 10/10/10 9/9/9 25/25/25 
f 27/27/27 11/11/11 10/10/10 26/26/26 
f 28/28/28 12/12/12 11/11/11 27/27/27 
f 29/29/29 13/13/13 12/12/12 28/28/28 
f 30/30/30 14/14/14 13/13/13 29/29/29 
f 31/31/31 15/15/15 14/14/14 30/30/30 
f 32/32/32 16/16/16 15/15/15 31/31/31 
f 33/33/33 17/17/17 16/16/16 32/32/32 
f 34/34/34 18/18/18 17/17/17 33/33/33 
f 35/35/35 19/19/19 18/18/18 34/34/34 
f 36/36/36 20/20/20 19/19/19 35/35/35 
f 22/22/22 5/5/5 20/20/20 36/36/36 
f 37/37/37 21/21/21 22/22/22 38/38/38 
f 39/39/39 23/23/23 21/21/21 37/37/37 
f 40/40/40 24/24/24 23/23/23 39/39/39 
f 41/41/41 25/25/25 24/24/24 40/40/40 
f 42/42/42 26/26/26 25/25/25 41/41/41 
f 43/43/43 27/27/27 26/26/26 42/42/42 
f 44/44/44 28/28/28 27/27/27 43/43/43 
f 45/45/45 29/29/29 28/28/28 44/44/44 
f 46/46/46 30/30/30 29/29/29 45/45/45 
f 47/47/47 31/31/31 30/30/30 46/46/46 
f 48/48/48 32/32/32 31/31/31 47/47/47 
f 49/49/49 33/33/33 32/32/32 48/48/48 
f 50/50/50 34/34/34 33/33/33 49/49/49 
f 51/51/51 35/35/35 34/34/34 50/50/50 
f 52/52/52 36/36/36 35/35/35 51/51/51 
f 38/38/38 22/22/22 36/36/36 52/52/52 
f 53/53/53 37/54/37 38/55/38 54/56/54 
f 55/57/55 39/58/39 37/54/37 53/53/53 
f 56/59/56 40/60/40 39/58/39 55/57/55 
f 57/61/57 41/62/41 40/60/40 56/59/56 
f 58/63/58 42/64/42 41/62/41 57/61/57 
f 59/65/59 43/66/43 42/64/42 58/63/58 
f 60/67/60 44/68/44 43/66/43 59/65/59 
f 61/69/61 45/70/45 44/68/44 60/67/60 
f 62/71/62 46/72/46 45/70/45 61/69/61 
f 63/73/63 47/74/47 46/72/46 62/71/62 
f 64/75/64 48/76/48 47/74/47 63/73/63 
f 65/77/65 49/78/49 48/76/48 64/75/64 
f 66/79/66 50/80/50 49/78/49 65/77/65 
f 67/81/67 51/82/51 50/80/50 66/79/66 
f 68/83/68 52/84/52 51/82/51 67/81/67 
f 54/85/54 38/86/38 52/84/52 68/83/68 
f 69/27/69 53/43/53 54/44/54 70/28/70 
f 71/26/71 55/42/55 53/43/53 69/27/69 
f 72/25/72 56/41/56 55/42/55 71/26/71 
f 73/24/73 57/40/57 56/41/56 72/25/72 
f 74/23/74 58/39/58 57/40/57 73/24/73 
f 75/21/75 59/37/59 58/39/58 74/23/74 
f 76/22/76 60/38/60 59/37/59 75/21/75 
f 77/36/77 61/52/61 60/38/60 76/22/76 
f 78/35/78 62/51/62 61/52/61 77/36/77 
f 79/34/79 63/50/63 62/51/62 78/35/78 
f 80/33/80 64/49/64 63/50/63 79/34/79 
f 81/32/81 65/48/65 64/49/64 80/33/80 
f 82/31/82 66/47/66 65/48/65 81/32/81 
f 83/30/83 67/46/67 66/47/66 82/31/82 
f 84/29/84 68/45/68 67/46/67 83/30/83 
f 70/28/70 54/44/54 68/45/68 84/29/84 
f 85/11/85 69/27/69 70/28/70 86/12/86 
f 87/10/87 71/26/71 69/27/69 85/11/85 
f 88/9/88 72/25/72 71/26/71 87/10/87 
f 89/8/89 73/24/73 72/25/72 88/9/88 
f 90/7/90 74/23/74 73/24/73 89/8/89 
f 91/6/91 75/21/75 74/23/74 90/7/90 
f 92/5/92 76/22/76 75/21/75 91/6/91 
f 93/20/93 77/36/77 76/22/76 92/5/92 
f 94/19/94 78/35/78 77/36/77 93/20/93 
f 95/18/95 79/34/79 78/35/78 94/19/94 
f 96/17/96 80/33/80 79/34/79 95/18/95 
f 97/16/97 81/32/81 80/33/80 96/17/96 
f 98/15/98 82/31/82 81/32/81 97/16/97 
f 99/14/99 83/30/83 82/31/82 98/15/98 
f 100/13/100 84/29/84 83/30/83 99/14/99 
f 86/12/86 70/28/70 84/29/84 100/13/100 
f 86/12/86 101/4/101 85/11/85 
f 85/11/85 101/4/101 87/10/87 
f 87/10/87 101/4/101 88/9/88 
f 102/3/102 89/8/89 88/9/88 101/4/101 
f 89/8/89 102/3/102 90/7/90 
f 90/7/90 102/3/102 91/6/91 
f 91/6/91 102/3/102 92/5/92 
f 103/2/103 93/20/93 92/5/92 102/3/102 
f 93/20/93 103/2/103 94/19/94 
f 94/19/94 103/2/103 95/18/95 
f 95/18/95 103/2/103 96/17/96 
f 104/1/104 97/16/97 96/17/96 103/2/103 
f 97/16/97 104/1/104 98/15/98 
f 98/15/98 104/1/104 99/14/99 
f 99/14/99 104/1/104 100/13/100 
f 101/4/101 86/12/86 100/13/100 104/1/104 
f 102/3/102 101/4/101 104/1/104 103/2/103 
usemtl number
f 105/87/105 106/88/106 107/89/106 108/90/105 
s 3
f 109/91/107 105/87/105 108/90/105 110/92/107 
s 2
f 111/93/108 109/91/107 110/92/107 112/94/108 
f 113/95/109 111/93/108 112/94/108 114/96/109 
f 115/97/110 113/95/109 114/96/109 116/98/110 
f 117/99/111 115/97/110 116/98/110 118/100/111 
f 119/101/112 117/99/111 118/100/111 120/102/112 
f 121/103/113 119/101/112 120/102/112 122/104/113 
f 123/105/114 121/103/113 122/104/113 124/106/114 
f 125/107/115 123/105/114 124/106/114 126/108/115 
f 127/109/116 125/107/115 126/108/115 128/110/116 
f 129/111/117 127/109/116 128/110/116 130/112/117 
f 131/113/118 129/111/117 130/112/117 132/114/118 
f 133/115/119 131/113/118 132/114/118 134/116/119 
f 135/117/120 133/115/119 134/116/119 136/118/120 
f 137/119/121 135/117/120 136/118/120 138/120/121 
f 139/121/122 137/119/121 138/120/121 140/122/122 
f 141/123/123 139/121/122 140/122/122 142/124/123 
f 143/125/124 141/123/123 142/124/123 144/126/124 
f 145/127/125 143/125/124 144/126/124 146/128/125 
f 147/129/126 145/127/125 146/128/125 148/130/126 
f 149/131/127 147/129/126 148/130/126 150/132/127 
f 151/133/128 149/131/127 150/132/127 152/134/128 
f 153/135/129 151/133/128 152/134/128 154/136/129 
f 155/137/130 153/135/129 154/136/129 156/138/130 
f 157/139/131 155/137/130 156/138/130 158/140/131 
f 159/141/132 157/139/131 158/140/131 160/142/132 
f 161/143/133 159/141/132 160/142/132 162/144/133 
f 163/145/134 161/143/133 162/144/133 164/146/134 
f 165/147/135 163/145/134 164/146/134 166/148/135 
f 167/149/136 165/147/135 166/148/135 168/150/136 
f 169/151/137 167/149/136 168/150/136 170/152/137 
f 171/153/138 169/151/137 170/152/137 172/154/138 
f 173/155/139 171/153/138 172/154/138 174/156/139 
f 175/157/140 173/155/139 174/156/139 176/158/140 
f 177/159/141 175/157/140 176/158/140 178/160/141 
f 179/161/142 177/159/141 178/160/141 180/162/142 
f 181/163/143 179/161/142 180/162/142 182/164/143 
f 183/165/144 181/163/143 182/164/143 184/166/144 
f 185/167/145 183/165/144 184/166/144 186/168/145 
f 187/169/146 185/167/145 186/168/145 188/170/146 
s 4
f 189/171/147 187/169/148 188/170/148 190/172/147 
f 191/173/149 189/171/147 190/172/147 192/174/149 
f 193/175/150 191/173/149 192/174/149 194/176/150 
f 195/177/151 193/175/150 194/176/150 196/178/151 
f 197/179/152 195/177/151 196/178/151 198/180/152 
f 199/181/153 197/179/152 198/180/152 200/182/153 
f 201/183/154 199/181/153 200/182/153 202/184/154 
f 203/185/155 201/183/154 202/184/154 204/186/155 
f 205/187/156 203/185/155 204/186/155 206/188/156 
f 207/189/157 205/187/156 206/188/156 208/190/157 
f 209/191/158 207/189/157 208/190/157 210/192/158 
f 211/193/159 209/191/158 210/192/158 212/194/159 
f 213/195/160 211/193/159 212/194/159 214/196/160 
f 215/197/161 213/195/160 214/196/160 216/198/161 
f 217/199/162 215/197/161 216/198/161 218/200/162 
f 219/201/163 217/199/162 218/200/162 220/202/163 
f 221/203/164 219/201/163 220/202/163 222/204/164 
f 223/205/165 221/203/164 222/204/164 224/206/165 
f 225/207/166 223/205/165 224/206/165 226/208/166 
f 227/209/167 225/207/166 226/208/166 228/210/167 
f 229/211/168 227/209/167 228/210/167 230/212/168 
f 231/213/169 229/211/168 230/212/168 232/214/169 
f 233/215/170 231/213/169 232/214/169 234/216/170 
f 235/217/171 233/215/170 234/216/170 236/218/171 
f 237/219/172 235/217/171 236/218/171 238/220/172 
f 239/221/173 237/219/172 238/220/172 240/222/173 
f 241/223/174 239/221/173 240/222/173 242/224/174 
f 243/225/175 241/223/174 242/224/174 244/226/175 
f 245/227/176 243/225/175 244/226/175 246/228/176 
f 247/229/177 245/227/176 246/228/176 248/230/177 
f 249/231/178 247/229/177 248/230/177 250/232/178 
f 251/233/179 249/231/178 250/232/178 252/234/179 
f 253/235/180 251/233/179 252/234/179 254/236/180 
f 255/237/181 253/235/180 254/236/180 256/238/181 
f 257/239/182 255/237/181 256/238/181 258/240/182 
f 259/241/183 257/239/182 258/240/182 260/242/183 
f 261/243/184 259/241/183 260/242/183 262/244/184 
f 263/245/185 261/243/184 262/244/184 264/246/185 
f 265/247/186 263/245/185 264/246/185 266/248/186 
f 267/249/187 265/247/186 266/248/186 268/250/187 
f 269/251/188 267/249/187 268/250/187 270/252/188 
f 271/253/189 269/251/188 270/252/188 272/254/189 
s 2
f 273/255/190 271/253/190 272/254/190 274/256/190 
s 4
f 275/257/191 273/255/192 274/256/192 276/258/191 
f 277/259/193 275/257/191 276/258/191 278/260/193 
f 279/261/194 277/259/193 278/260/193 280/262/194 
f 281/263/195 279/261/194 280/262/194 282/264/195 
f 283/265/196 281/263/195 282/264/195 284/266/196 
f 285/267/197 283/265/196 284/266/196 286/268/197 
f 287/269/198 285/267/197 286/268/197 288/270/198 
f 289/271/199 287/269/198 288/270/198 290/272/199 
f 291/273/200 289/271/199 290/272/199 292/274/200 
f 293/275/201 291/273/200 292/274/200 294/276/201 
f 295/277/202 293/275/201 294/276/201 296/278/202 
f 297/279/203 295/277/202 296/278/202 298/280/203 
f 299/281/204 297/279/203 298/280/203 300/282/204 
f 301/283/205 299/281/204 300/282/204 302/284/205 
f 303/285/206 301/283/205 302/284/205 304/286/206 
f 305/287/207 303/285/206 304/286/206 306/288/207 
f 307/289/208 305/287/207 306/288/207 308/290/208 
f 309/291/209 307/289/208 308/290/208 310/292/209 
f 311/293/210 309/291/209 310/292/209 312/294/210 
f 313/295/211 311/293/210 312/294/210 314/296/211 
f 315/297/212 313/295/211 314/296/211 316/298/212 
f 317/299/213 315/297/212 316/298/212 318/300/213 
f 319/301/214 317/299/213 318/300/213 320/302/214 
f 321/303/215 319/301/214 320/302/214 322/304/215 
f 323/305/216 321/303/215 322/304/215 324/306/216 
f 325/307/217 323/305/216 324/306/216 326/308/217 
f 327/309/218 325/307/217 326/308/217 328/310/218 
f 329/311/219 327/309/218 328/310/218 330/312/219 
f 331/313/220 329/311/219 330/312/219 332/314/220 
f 333/315/221 331/313/220 332/314/220 334/316/221 
f 335/317/222 333/315/221 334/316/221 336/318/222 
f 337/319/223 335/317/222 336/318/222 338/320/223 
f 339/321/224 337/319/223 338/320/223 340/322/224 
f 341/323/225 339/321/224 340/322/224 342/324/225 
f 343/325/226 341/323/225 342/324/225 344/326/226 
f 345/327/227 343/325/226 344/326/226 346/328/227 
f 347/329/228 345/327/227 346/328/227 348/330/228 
f 349/331/229 347/329/228 348/330/228 350/332/229 
f 351/333/230 349/331/229 350/332/229 352/334/230 
f 353/335/231 351/333/230 352/334/230 354/336/231 
f 355/337/232 353/335/231 354/336/231 356/338/232 
f 357/339/233 355/337/232 356/338/232 358/340/233 
s 2
f 359/341/234 357/339/234 358/340/234 360/342/234 
s 4
f 361/343/235 359/341/236 360/342/236 362/344/235 
f 363/345/237 361/343/235 362/344/235 364/346/237 
f 365/347/238 363/345/237 364/346/237 366/348/238 
f 367/349/239 365/347/238 366/348/238 368/350/239 
f 369/351/240 367/349/239 368/350/239 370/352/240 
f 371/353/241 369/351/240 370/352/240 372/354/241 
f 373/355/242 371/353/241 372/354/241 374/356/242 
f 375/357/243 373/355/242 374/356/242 376/358/243 
f 377/359/244 375/357/243 376/358/243 378/360/244 
f 379/361/245 377/359/244 378/360/244 380/362/245 
f 381/363/246 379/361/245 380/362/245 382/364/246 
f 383/365/247 381/363/246 382/364/246 384/366/247 
f 385/367/248 383/365/247 384/366/247 386/368/248 
f 387/369/249 385/367/248 386/368/248 388/370/249 
f 389/371/250 387/369/249 388/370/249 390/372/250 
f 391/373/251 389/371/250 390/372/250 392/374/251 
f 393/375/252 391/373/251 392/374/251 394/376/252 
f 395/377/253 393/375/252 394/376/252 396/378/253 
f 397/379/254 395/377/253 396/378/253 398/380/254 
f 399/381/255 397/379/254 398/380/254 400/382/255 
f 401/383/256 399/381/255 400/382/255 402/384/256 
f 403/385/257 401/383/256 402/384/256 404/386/257 
f 405/387/258 403/385/257 404/386/257 406/388/258 
f 407/389/259 405/387/258 406/388/258 408/390/259 
f 409/391/260 407/389/259 408/390/259 410/392/260 
f 411/393/261 409/391/260 410/392/260 412/394/261 
f 413/395/262 411/393/261 412/394/261 414/396/262 
f 415/397/263 413/395/262 414/396/262 416/398/263 
f 417/399/264 415/397/263 416/398/263 418/400/264 
f 419/401/265 417/399/264 418/400/264 420/402/265 
f 421/403/266 419/401/265 420/402/265 422/404/266 
f 423/405/267 421/403/266 422/404/266 424/406/267 
f 425/407/268 423/405/267 424/406/267 426/408/268 
f 427/409/269 425/407/268 426/408/268 428/410/269 
f 429/411/270 427/409/269 428/410/269 430/412/270 
f 431/413/271 429/411/270 430/412/270 432/414/271 
f 433/415/272 431/413/271 432/414/271 434/416/272 
f 435/417/273 433/415/272 434/416/272 436/418/273 
f 437/419/274 435/417/273 436/418/273 438/420/274 
f 439/421/275 437/419/274 438/420/274 440/422/275 
f 441/423/276 439/421/275 440/422/275 442/424/276 
f 443/425/277 441/423/276 442/424/276 444/426/277 
f 445/427/278 443/425/277 444/426/277 446/428/278 
f 447/429/279 445/427/278 446/428/278 448/430/279 
f 449/431/280 447/429/279 448/430/279 450/432/280 
f 451/433/281 449/431/280 450/432/280 452/434/281 
f 453/435/282 451/433/281 452/434/281 454/436/282 
f 455/437/283 453/435/282 454/436/282 456/438/283 
f 457/439/284 455/437/283 456/438/283 458/440/284 
s 2
f 459/441/285 457/439/285 458/440/285 460/442/285 
s 5
f 106/88/106 459/441/286 460/442/286 107/89/106 
s 16
f 107/89/287 460/442/287 458/440/287 456/438/287 
f 108/90/287 107/89/287 456/438/287 454/436/287 
f 110/92/287 108/90/287 454/436/287 452/434/287 
f 112/94/287 110/92/287 452/434/287 450/432/287 
f 114/96/287 112/94/287 450/432/287 448/430/287 
f 116/98/287 114/96/287 448/430/287 446/428/287 
f 118/100/287 116/98/287 446/428/287 444/426/287 
f 120/102/287 118/100/287 444/426/287 122/104/287 
f 122/104/287 444/426/287 442/424/287 124/106/287 
f 124/106/287 442/424/287 440/422/287 126/108/287 
f 126/108/287 440/422/287 438/420/287 436/418/287 
f 128/110/287 126/108/287 436/418/287 434/416/287 
f 130/112/287 128/110/287 434/416/287 432/414/287 
f 132/114/287 130/112/287 432/414/287 430/412/287 
f 134/116/287 132/114/287 430/412/287 428/410/287 
f 136/118/287 134/116/287 428/410/287 426/408/287 
f 136/118/287 426/408/287 424/406/287 138/120/287 
f 138/120/287 424/406/287 422/404/287 140/122/287 
f 140/122/287 422/404/287 420/402/287 142/124/287 
f 142/124/287 420/402/287 418/400/287 144/126/287 
f 144/126/287 418/400/287 416/398/287 146/128/287 
f 146/128/287 416/398/287 414/396/287 148/130/287 
f 148/130/287 414/396/287 412/394/287 150/132/287 
f 150/132/287 412/394/287 410/392/287 152/134/287 
f 154/136/287 152/134/287 410/392/287 408/390/287 
f 156/138/287 154/136/287 408/390/287 406/388/287 
f 158/140/287 156/138/287 406/388/287 404/386/287 
f 160/142/287 158/140/287 404/386/287 402/384/287 
f 162/144/287 160/142/287 402/384/287 400/382/287 
f 164/146/287 162/144/287 400/382/287 166/148/287 
f 166/148/287 400/382/287 398/380/287 168/150/287 
f 170/152/287 168/150/287 398/380/287 396/378/287 
f 172/154/287 170/152/287 396/378/287 174/156/287 
f 174/156/287 396/378/287 394/376/287 176/158/287 
f 178/160/287 176/158/287 394/376/287 392/374/287 
f 180/162/287 178/160/287 392/374/287 182/164/287 
f 182/164/287 392/374/287 390/372/287 184/166/287 
f 186/168/287 184/166/287 390/372/287 388/370/287 
f 188/170/287 186/168/287 388/370/287 386/368/287 
f 188/170/287 386/368/287 384/366/287 346/328/287 
f 362/344/287 360/342/287 358/340/287 364/346/287 
f 366/348/287 364/346/287 358/340/287 356/338/287 
f 368/350/287 366/348/287 356/338/287 370/352/287 
f 370/352/287 356/338/287 354/336/287 372/354/287 
f 374/356/287 372/354/287 354/336/287 352/334/287 
f 376/358/287 374/356/287 352/334/287 350/332/287 
f 378/360/287 376/358/287 350/332/287 348/330/287 
f 380/362/287 378/360/287 348/330/287 346/328/287 
f 382/364/287 380/362/287 346/328/287 384/366/287 
f 188/170/287 346/328/287 344/326/287 342/324/287 
f 188/170/287 342/324/287 340/322/287 190/172/287 
f 190/172/287 340/322/287 338/320/287 192/174/287 
f 192/174/287 338/320/287 336/318/287 194/176/287 
f 194/176/287 336/318/287 334/316/287 196/178/287 
f 196/178/287 334/316/287 332/314/287 198/180/287 
f 198/180/287 332/314/287 330/312/287 200/182/287 
f 200/182/287 330/312/287 328/310/287 202/184/287 
f 204/186/287 202/184/287 328/310/287 326/308/287 
f 206/188/287 204/186/287 326/308/287 208/190/287 
f 208/190/287 326/308/287 324/306/287 210/192/287 
f 210/192/287 324/306/287 322/304/287 212/194/287 
f 212/194/287 322/304/287 320/302/287 214/196/287 
f 216/198/287 214/196/287 320/302/287 318/300/287 
f 218/200/287 216/198/287 318/300/287 316/298/287 
f 218/200/287 316/298/287 314/296/287 220/202/287 
f 220/202/287 314/296/287 312/294/287 222/204/287 
f 222/204/287 312/294/287 310/292/287 224/206/287 
f 224/206/287 310/292/287 308/290/287 226/208/287 
f 226/208/287 308/290/287 306/288/287 228/210/287 
f 228/210/287 306/288/287 304/286/287 302/284/287 
f 230/212/287 228/210/287 302/284/287 232/214/287 
f 232/214/287 302/284/287 300/282/287 234/216/287 
f 234/216/287 300/282/287 298/280/287 236/218/287 
f 236/218/287 298/280/287 296/278/287 238/220/287 
f 238/220/287 296/278/287 294/276/287 240/222/287 
f 242/224/287 240/222/287 294/276/287 292/274/287 
f 244/226/287 242/224/287 292/274/287 290/272/287 
f 246/228/287 244/226/287 290/272/287 248/230/287 
f 248/230/287 290/272/287 288/270/287 250/232/287 
f 252/234/287 250/232/287 288/270/287 286/268/287 
f 254/236/287 252/234/287 286/268/287 256/238/287 
f 256/238/287 286/268/287 284/266/287 258/240/287 
f 260/242/287 258/240/287 284/266/287 282/264/287 
f 262/244/287 260/242/287 282/264/287 264/246/287 
f 264/246/287 282/264/287 280/262/287 266/248/287 
f 266/248/287 280/262/287 278/260/287 268/250/287 
f 268/250/287 278/260/287 276/258/287 270/252/287 
f 270/252/287 276/258/287 274/256/287 272/254/287 
f 269/251/288 271/253/288 273/255/288 275/257/288 
f 357/339/288 359/341/288 361/343/288 363/345/288 
f 357/339/288 363/345/288 365/347/288 355/337/288 
f 355/337/288 365/347/288 367/349/288 369/351/288 
f 353/335/288 355/337/288 369/351/288 371/353/288 
f 353/335/288 371/353/288 373/355/288 351/333/288 
f 351/333/288 373/355/288 375/357/288 349/331/288 
f 349/331/288 375/357/288 377/359/288 347/329/288 
f 347/329/288 377/359/288 379/361/288 345/327/288 
f 345/327/288 379/361/288 381/363/288 383/365/288 
f 457/439/288 459/441/288 106/88/288 455/437/288 
f 455/437/288 106/88/288 105/87/288 453/435/288 
f 453/435/288 105/87/288 109/91/288 451/433/288 
f 451/433/288 109/91/288 111/93/288 449/431/288 
f 449/431/288 111/93/288 113/95/288 447/429/288 
f 447/429/288 113/95/288 115/97/288 445/427/288 
f 445/427/288 115/97/288 117/99/288 443/425/288 
f 443/425/288 117/99/288 119/101/288 121/103/288 
f 441/423/288 443/425/288 121/103/288 123/105/288 
f 439/421/288 441/423/288 123/105/288 125/107/288 
f 437/419/288 439/421/288 125/107/288 435/417/288 
f 435/417/288 125/107/288 127/109/288 433/415/288 
f 433/415/288 127/109/288 129/111/288 431/413/288 
f 431/413/288 129/111/288 131/113/288 429/411/288 
f 429/411/288 131/113/288 133/115/288 427/409/288 
f 427/409/288 133/115/288 135/117/288 425/407/288 
f 423/405/288 425/407/288 135/117/288 137/119/288 
f 421/403/288 423/405/288 137/119/288 139/121/288 
f 419/401/288 421/403/288 139/121/288 141/123/288 
f 417/399/288 419/401/288 141/123/288 143/125/288 
f 415/397/288 417/399/288 143/125/288 145/127/288 
f 413/395/288 415/397/288 145/127/288 147/129/288 
f 411/393/288 413/395/288 147/129/288 149/131/288 
f 409/391/288 411/393/288 149/131/288 151/133/288 
f 409/391/288 151/133/288 153/135/288 407/389/288 
f 407/389/288 153/135/288 155/137/288 405/387/288 
f 405/387/288 155/137/288 157/139/288 403/385/288 
f 403/385/288 157/139/288 159/141/288 401/383/288 
f 401/383/288 159/141/288 161/143/288 399/381/288 
f 399/381/288 161/143/288 163/145/288 165/147/288 
f 397/379/288 399/381/288 165/147/288 167/149/288 
f 397/379/288 167/149/288 169/151/288 395/377/288 
f 395/377/288 169/151/288 171/153/288 173/155/288 
f 393/375/288 395/377/288 173/155/288 175/157/288 
f 393/375/288 175/157/288 177/159/288 391/373/288 
f 391/373/288 177/159/288 179/161/288 181/163/288 
f 389/371/288 391/373/288 181/163/288 183/165/288 
f 389/371/288 183/165/288 185/167/288 387/369/288 
f 387/369/288 185/167/288 187/169/288 385/367/288 
f 383/365/288 385/367/288 187/169/288 345/327/288 
f 343/325/288 345/327/288 187/169/288 341/323/288 
f 339/321/288 341/323/288 187/169/288 189/171/288 
f 337/319/288 339/321/288 189/171/288 191/173/288 
f 335/317/288 337/319/288 191/173/288 193/175/288 
f 333/315/288 335/317/288 193/175/288 195/177/288 
f 331/313/288 333/315/288 195/177/288 197/179/288 
f 329/311/288 331/313/288 197/179/288 199/181/288 
f 327/309/288 329/311/288 199/181/288 201/183/288 
f 327/309/288 201/183/288 203/185/288 325/307/288 
f 325/307/288 203/185/288 205/187/288 207/189/288 
f 323/305/288 325/307/288 207/189/288 209/191/288 
f 321/303/288 323/305/288 209/191/288 211/193/288 
f 319/301/288 321/303/288 211/193/288 213/195/288 
f 319/301/288 213/195/288 215/197/288 317/299/288 
f 317/299/288 215/197/288 217/199/288 315/297/288 
f 313/295/288 315/297/288 217/199/288 219/201/288 
f 311/293/288 313/295/288 219/201/288 221/203/288 
f 309/291/288 311/293/288 221/203/288 223/205/288 
f 307/289/288 309/291/288 223/205/288 225/207/288 
f 305/287/288 307/289/288 225/207/288 227/209/288 
f 303/285/288 305/287/288 227/209/288 301/283/288 
f 301/283/288 227/209/288 229/211/288 231/213/288 
f 299/281/288 301/283/288 231/213/288 233/215/288 
f 297/279/288 299/281/288 233/215/288 235/217/288 
f 295/277/288 297/279/288 235/217/288 237/219/288 
f 293/275/288 295/277/288 237/219/288 239/221/288 
f 293/275/288 239/221/288 241/223/288 291/273/288 
f 291/273/288 241/223/288 243/225/288 289/271/288 
f 289/271/288 243/225/288 245/227/288 247/229/288 
f 287/269/288 289/271/288 247/229/288 249/231/288 
f 287/269/288 249/231/288 251/233/288 285/267/288 
f 285/267/288 251/233/288 253/235/288 255/237/288 
f 283/265/288 285/267/288 255/237/288 257/239/288 
f 283/265/288 257/239/288 259/241/288 281/263/288 
f 281/263/288 259/241/288 261/243/288 263/245/288 
f 279/261/288 281/263/288 263/245/288 265/247/288 
f 277/259/288 279/261/288 265/247/288 267/249/288 
f 275/257/288 277/259/288 267/249/288 269/251/288 
# 444 polygons - 24 triangles

